<svg xmlns="http://www.w3.org/2000/svg" width="21.945" height="21.869" viewBox="0 0 21.945 21.869">
  <g id="Group_1412" data-name="Group 1412" transform="translate(-1027.133 -86.833)">
    <line id="Line_8" data-name="Line 8" x2="5.313" y2="5.313" transform="translate(1042.352 101.976)" fill="none" stroke="#5dff00" stroke-linecap="round" stroke-linejoin="round" stroke-width="2"/>
    <circle id="Ellipse_8" data-name="Ellipse 8" cx="8.277" cy="8.277" r="8.277" transform="translate(1028.133 87.833)" stroke-width="2" stroke="#5dff00" stroke-linecap="round" stroke-linejoin="round" fill="none"/>
  </g>
</svg>
